{
	"forge_marker": 1,
	"defaults": {
		"textures": {
			"side": "arthania:blocks/cherry_log_side","end": "arthania:blocks/cherry_log_end"
		}
	},
	"variants": {
		"normal": {
			"model": "cube_column"
		},
		"inventory": {
			"model": "cube_column"
		}
	}
}